<svg width="20" height="21" viewBox="0 0 20 21" fill="none" xmlns="http://www.w3.org/2000/svg">
<path d="M6.25 13.2231L10 16.9731L13.75 13.2231" stroke="#464F60" stroke-width="1.875" stroke-linecap="round" stroke-linejoin="round"/>
<path d="M6.25 6.97314L10 3.22314L13.75 6.97314" stroke="#464F60" stroke-width="1.875" stroke-linecap="round" stroke-linejoin="round"/>
</svg>
