<svg width="188" height="207" viewBox="0 0 188 207" fill="none" xmlns="http://www.w3.org/2000/svg">
<rect y="0.378906" width="188" height="206.159" rx="6.40909" fill="#E9EDF5"/>
<rect x="8.8125" y="8.92578" width="170.375" height="127.114" rx="4.27273" fill="#FC9827"/>
<rect x="9.07955" y="9.19283" width="169.841" height="126.58" rx="4.00568" stroke="black" stroke-opacity="0.1" stroke-width="0.534091"/>
<rect x="8.8125" y="8.92578" width="170.375" height="127.114" rx="4.27273" fill="url(#paint0_linear_7139_56524)" style="mix-blend-mode:color"/>
<rect x="8.8125" y="8.92578" width="170.375" height="127.114" rx="4.27273" fill="url(#paint1_linear_7139_56524)" style="mix-blend-mode:multiply"/>
<rect x="8.8125" y="9.37891" width="170.375" height="127.114" rx="4.27273" fill="url(#paint2_linear_7139_56524)" style="mix-blend-mode:screen"/>
<rect x="9.07955" y="9.19283" width="169.841" height="126.58" rx="4.00568" stroke="black" stroke-opacity="0.1" stroke-width="0.534091"/>
<circle cx="17.5455" cy="17.9244" r="8.54545" fill="black"/>
<circle cx="17.5455" cy="17.9244" r="8.27841" stroke="black" stroke-opacity="0.1" stroke-width="0.534091"/>
<circle cx="17.5462" cy="17.9251" r="4.27273" fill="white"/>
<circle cx="17.5462" cy="17.9251" r="4.00568" stroke="black" stroke-opacity="0.1" stroke-width="0.534091"/>
<rect x="8.54492" y="144.582" width="170.909" height="6.40909" rx="3.20455" fill="url(#paint3_linear_7139_56524)"/>
<rect x="8.81197" y="144.849" width="170.375" height="5.875" rx="2.9375" stroke="black" stroke-opacity="0.1" stroke-width="0.534091"/>
<circle cx="26.4361" cy="147.788" r="8.54545" fill="white"/>
<circle cx="26.4361" cy="147.788" r="8.27841" stroke="black" stroke-opacity="0.1" stroke-width="0.534091"/>
<circle cx="26.4368" cy="147.788" r="4.27273" fill="#E89623"/>
<circle cx="26.4368" cy="147.788" r="4.00568" stroke="black" stroke-opacity="0.1" stroke-width="0.534091"/>
<g clip-path="url(#clip0_7139_56524)">
<path d="M8.54492 176.624C8.54492 174.265 10.4579 172.352 12.8176 172.352H59.8176C62.1774 172.352 64.0904 174.265 64.0904 176.624V189.442C64.0904 191.802 62.1774 193.715 59.8176 193.715H12.8177C10.4579 193.715 8.54492 191.802 8.54492 189.442V176.624Z" fill="white"/>
<path d="M19.6554 185.625L20.1682 184.078H21.1338L21.2705 183.625H20.322L20.8945 181.925H21.826L21.9542 181.48H21.0398L21.5611 179.925H21.0398L20.5271 181.48H19.5871L20.0998 179.925H19.57L19.0573 181.48H18.1173L17.9805 181.925H18.9034L18.3394 183.625H17.4251L17.2798 184.078H18.1856L17.6643 185.625H18.1942L18.7069 184.078H19.6554L19.1342 185.625H19.6554ZM19.8007 183.625H18.8607L19.4247 181.925H20.3647L19.8007 183.625ZM26.5332 185.625V184.993H23.5081V183.027H26.4734V182.395H23.5081V180.558H26.5332V179.925H22.7988V185.625H26.5332ZM27.4419 184.181C27.4419 185.155 28.3562 185.728 29.4842 185.728C30.6037 185.728 31.5266 185.146 31.5266 184.181C31.5266 183.42 30.8772 182.899 30.1679 182.685C30.8259 182.497 31.4412 182.07 31.4412 181.318C31.4412 180.293 30.4242 179.84 29.4842 179.84C28.5357 179.84 27.5359 180.293 27.5359 181.318C27.5359 182.07 28.1426 182.497 28.8006 182.685C28.0913 182.899 27.4419 183.42 27.4419 184.181ZM30.7233 181.412C30.7233 182.104 29.8346 182.335 29.4842 182.395C29.1424 182.335 28.2452 182.104 28.2452 181.412C28.2452 180.822 28.7921 180.472 29.4842 180.472C30.1679 180.472 30.7233 180.822 30.7233 181.412ZM30.8088 184.104C30.8088 184.719 30.185 185.095 29.4842 185.095C28.775 185.095 28.1512 184.719 28.1512 184.104C28.1512 183.36 29.1339 183.044 29.4842 183.002C29.8346 183.044 30.8088 183.36 30.8088 184.104ZM32.6807 185.035C33.0396 185.446 33.5353 185.719 34.2616 185.719C35.8596 185.719 36.5774 184.318 36.5774 182.779C36.5774 181.224 35.9707 179.831 34.3727 179.831C33.1336 179.831 32.3816 180.711 32.3816 181.694C32.3816 182.908 33.2276 183.514 34.2531 183.514C34.9794 183.514 35.6118 183.019 35.8596 182.626C35.8682 182.702 35.8682 182.779 35.8682 182.856C35.8682 183.933 35.4153 185.087 34.2616 185.087C33.672 185.087 33.3302 184.847 33.0396 184.506L32.6807 185.035ZM35.834 182.053C35.5349 182.557 34.9794 182.899 34.4154 182.899C33.6805 182.899 33.0994 182.506 33.0994 181.668C33.0994 181.13 33.5353 180.464 34.4069 180.464C35.3982 180.464 35.7742 181.344 35.834 182.053ZM37.4475 182.788C37.4475 184.335 38.0543 185.728 39.6437 185.728C40.8914 185.728 41.6434 184.856 41.6434 183.865C41.6434 182.651 40.8059 182.044 39.7804 182.044C39.0455 182.044 38.4132 182.54 38.1654 182.933C38.1568 182.856 38.1568 182.788 38.1568 182.711C38.1568 181.592 38.661 180.472 39.7634 180.472C40.3615 180.472 40.6948 180.711 40.9854 181.053L41.3443 180.523C40.9939 180.122 40.4983 179.84 39.7634 179.84C38.1654 179.84 37.4475 181.241 37.4475 182.788ZM40.9255 183.89C40.9255 184.437 40.4983 185.095 39.6181 185.095C38.6268 185.095 38.2508 184.224 38.1824 183.514C38.4986 183.01 39.0455 182.66 39.6095 182.66C40.3444 182.66 40.9255 183.053 40.9255 183.89ZM46.4358 185.625V184.993H43.6415C45.2309 183.736 46.4102 182.677 46.4102 181.515C46.4102 180.378 45.4445 179.84 44.496 179.84C43.6927 179.84 42.9493 180.164 42.5135 180.737L42.9493 181.19C43.2825 180.763 43.8124 180.472 44.496 180.472C45.0856 180.472 45.6838 180.788 45.6838 181.515C45.6838 182.497 44.5729 183.446 42.522 185.061V185.625H46.4358ZM47.3322 184.788C47.6825 185.3 48.3918 185.728 49.3574 185.728C50.6136 185.728 51.3742 185.035 51.3742 184.087C51.3742 183.172 50.5794 182.728 50.0582 182.685C50.5965 182.591 51.2887 182.181 51.2887 181.361C51.2887 180.395 50.4513 179.84 49.3574 179.84C48.4773 179.84 47.8193 180.224 47.4091 180.72L47.8022 181.164C48.2209 180.711 48.6823 180.472 49.3062 180.472C49.9983 180.472 50.5794 180.814 50.5794 181.446C50.5794 182.104 49.9727 182.386 49.2549 182.386C49.0242 182.386 48.7593 182.386 48.6653 182.378V183.027C48.7507 183.019 49.0156 183.019 49.2549 183.019C50.0923 183.019 50.6734 183.318 50.6734 184.027C50.6734 184.685 50.1693 185.095 49.3403 185.095C48.6653 185.095 48.0842 184.788 47.7509 184.343L47.3322 184.788Z" fill="#111111"/>
<path d="M12.8176 172.886H59.8176V171.817H12.8176V172.886ZM63.5563 176.624V189.442H64.6245V176.624H63.5563ZM59.8176 193.181H12.8177V194.249H59.8176V193.181ZM9.07901 189.442V176.624H8.01083V189.442H9.07901ZM12.8177 193.181C10.7529 193.181 9.07901 191.507 9.07901 189.442H8.01083C8.01083 192.097 10.1629 194.249 12.8177 194.249V193.181ZM63.5563 189.442C63.5563 191.507 61.8824 193.181 59.8176 193.181V194.249C62.4724 194.249 64.6245 192.097 64.6245 189.442H63.5563ZM59.8176 172.886C61.8824 172.886 63.5563 174.559 63.5563 176.624H64.6245C64.6245 173.97 62.4724 171.817 59.8176 171.817V172.886ZM12.8176 171.817C10.1629 171.817 8.01083 173.97 8.01083 176.624H9.07901C9.07901 174.559 10.7529 172.886 12.8176 172.886V171.817Z" fill="#E5E8E8"/>
<path d="M14.9501 165.535V161.26H14.0336V162.939H12.0147V161.26H11.1046V165.535H12.0147V163.741H14.0336V165.535H14.9501ZM15.5746 163.984C15.5746 164.978 16.286 165.612 17.2282 165.612C17.7089 165.612 18.1895 165.471 18.5036 165.183L18.1447 164.657C17.946 164.849 17.6063 164.965 17.3179 164.965C16.7924 164.965 16.4783 164.638 16.427 164.247H18.7279V164.067C18.7279 163.055 18.0998 162.363 17.1769 162.363C16.2348 162.363 15.5746 163.087 15.5746 163.984ZM17.1769 163.01C17.7153 163.01 17.9204 163.401 17.9396 163.696H16.4142C16.4527 163.388 16.6706 163.01 17.1769 163.01ZM21.9232 165.535L20.8144 163.946L21.8527 162.44H20.9426L20.3081 163.395L19.6672 162.44H18.7571L19.789 163.946L18.693 165.535H19.5967L20.3081 164.49L21.0131 165.535H21.9232Z" fill="#111111"/>
<path d="M68.3633 176.624C68.3633 174.265 70.2762 172.352 72.636 172.352H98.2724C100.632 172.352 102.545 174.265 102.545 176.624V189.442C102.545 191.802 100.632 193.715 98.2724 193.715H72.636C70.2763 193.715 68.3633 191.802 68.3633 189.442V176.624Z" fill="white"/>
<path d="M81.2854 185.625V184.993H78.4911C80.0805 183.736 81.2598 182.677 81.2598 181.515C81.2598 180.378 80.2942 179.84 79.3456 179.84C78.5423 179.84 77.7989 180.164 77.3631 180.737L77.7989 181.19C78.1322 180.763 78.662 180.472 79.3456 180.472C79.9352 180.472 80.5334 180.788 80.5334 181.515C80.5334 182.497 79.4225 183.446 77.3716 185.061V185.625H81.2854ZM82.1818 184.788C82.5321 185.3 83.2414 185.728 84.207 185.728C85.4632 185.728 86.2238 185.035 86.2238 184.087C86.2238 183.172 85.429 182.728 84.9078 182.685C85.4461 182.591 86.1383 182.181 86.1383 181.361C86.1383 180.395 85.3009 179.84 84.207 179.84C83.3269 179.84 82.6689 180.224 82.2587 180.72L82.6518 181.164C83.0705 180.711 83.5319 180.472 84.1558 180.472C84.8479 180.472 85.429 180.814 85.429 181.446C85.429 182.104 84.8223 182.386 84.1045 182.386C83.8738 182.386 83.6089 182.386 83.5149 182.378V183.027C83.6003 183.019 83.8652 183.019 84.1045 183.019C84.9419 183.019 85.523 183.318 85.523 184.027C85.523 184.685 85.0189 185.095 84.1899 185.095C83.5149 185.095 82.9338 184.788 82.6005 184.343L82.1818 184.788ZM91.066 185.625V184.993H88.2716C89.8611 183.736 91.0403 182.677 91.0403 181.515C91.0403 180.378 90.0747 179.84 89.1262 179.84C88.3229 179.84 87.5794 180.164 87.1436 180.737L87.5794 181.19C87.9127 180.763 88.4425 180.472 89.1262 180.472C89.7158 180.472 90.314 180.788 90.314 181.515C90.314 182.497 89.2031 183.446 87.1522 185.061V185.625H91.066Z" fill="#111111"/>
<path d="M72.636 172.886H98.2724V171.817H72.636V172.886ZM102.011 176.624V189.442H103.079V176.624H102.011ZM98.2724 193.181H72.636V194.249H98.2724V193.181ZM68.8974 189.442V176.624H67.8292V189.442H68.8974ZM72.636 193.181C70.5712 193.181 68.8974 191.507 68.8974 189.442H67.8292C67.8292 192.097 69.9813 194.249 72.636 194.249V193.181ZM102.011 189.442C102.011 191.507 100.337 193.181 98.2724 193.181V194.249C100.927 194.249 103.079 192.097 103.079 189.442H102.011ZM98.2724 172.886C100.337 172.886 102.011 174.559 102.011 176.624H103.079C103.079 173.97 100.927 171.817 98.2724 171.817V172.886ZM72.636 171.817C69.9813 171.817 67.8292 173.97 67.8292 176.624H68.8974C68.8974 174.559 70.5712 172.886 72.636 172.886V171.817Z" fill="#E5E8E8"/>
<path d="M74.3839 165.535L73.4225 163.907C73.884 163.798 74.3583 163.395 74.3583 162.638C74.3583 161.844 73.8135 161.26 72.9226 161.26H70.923V165.535H71.8331V164.003H72.4996L73.3392 165.535H74.3839ZM73.429 162.632C73.429 162.991 73.1534 163.221 72.788 163.221H71.8331V162.042H72.788C73.1534 162.042 73.429 162.273 73.429 162.632Z" fill="#111111"/>
<path d="M106.818 176.624C106.818 174.265 108.731 172.352 111.091 172.352H136.727C139.087 172.352 141 174.265 141 176.624V189.442C141 191.802 139.087 193.715 136.727 193.715H111.091C108.731 193.715 106.818 191.802 106.818 189.442V176.624Z" fill="white"/>
<path d="M117.596 185.625V179.925H116.972L115.545 181.395L115.972 181.831L116.886 180.865V185.625H117.596ZM118.825 184.813C119.252 185.377 119.868 185.728 120.833 185.728C121.978 185.728 122.858 185.01 122.858 183.848C122.858 182.677 121.995 182.027 121.047 182.027C120.474 182.027 119.987 182.267 119.714 182.54V180.558H122.491V179.925H119.004V183.002L119.526 183.181C119.91 182.805 120.338 182.643 120.842 182.643C121.611 182.643 122.149 183.121 122.149 183.873C122.149 184.565 121.611 185.095 120.833 185.095C120.132 185.095 119.637 184.822 119.261 184.343L118.825 184.813ZM123.737 182.779C123.737 184.164 124.353 185.728 125.916 185.728C127.472 185.728 128.095 184.164 128.095 182.779C128.095 181.386 127.472 179.84 125.916 179.84C124.353 179.84 123.737 181.386 123.737 182.779ZM127.369 182.779C127.369 183.916 127.002 185.095 125.916 185.095C124.831 185.095 124.464 183.916 124.464 182.779C124.464 181.643 124.831 180.472 125.916 180.472C127.002 180.472 127.369 181.643 127.369 182.779Z" fill="#111111"/>
<path d="M111.091 172.886H136.727V171.817H111.091V172.886ZM140.466 176.624V189.442H141.534V176.624H140.466ZM136.727 193.181H111.091V194.249H136.727V193.181ZM107.352 189.442V176.624H106.284V189.442H107.352ZM111.091 193.181C109.026 193.181 107.352 191.507 107.352 189.442H106.284C106.284 192.097 108.436 194.249 111.091 194.249V193.181ZM140.466 189.442C140.466 191.507 138.792 193.181 136.727 193.181V194.249C139.382 194.249 141.534 192.097 141.534 189.442H140.466ZM136.727 172.886C138.792 172.886 140.466 174.559 140.466 176.624H141.534C141.534 173.97 139.382 171.817 136.727 171.817V172.886ZM111.091 171.817C108.436 171.817 106.284 173.97 106.284 176.624H107.352C107.352 174.559 109.026 172.886 111.091 172.886V171.817Z" fill="#E5E8E8"/>
<path d="M109.173 163.401C109.173 164.747 110.198 165.618 111.448 165.618C112.224 165.618 112.833 165.298 113.268 164.811V163.177H111.23V163.959H112.371V164.478C112.185 164.644 111.839 164.805 111.448 164.805C110.673 164.805 110.109 164.208 110.109 163.401C110.109 162.593 110.673 161.997 111.448 161.997C111.897 161.997 112.262 162.234 112.461 162.536L113.217 162.126C112.89 161.619 112.333 161.19 111.448 161.19C110.198 161.19 109.173 162.049 109.173 163.401Z" fill="#111111"/>
<path d="M145.271 176.624C145.271 174.265 147.184 172.352 149.544 172.352H175.181C177.54 172.352 179.453 174.265 179.453 176.624V189.442C179.453 191.802 177.54 193.715 175.181 193.715H149.544C147.184 193.715 145.271 191.802 145.271 189.442V176.624Z" fill="white"/>
<path d="M154.066 184.788C154.417 185.3 155.126 185.728 156.091 185.728C157.348 185.728 158.108 185.035 158.108 184.087C158.108 183.172 157.313 182.728 156.792 182.685C157.331 182.591 158.023 182.181 158.023 181.361C158.023 180.395 157.185 179.84 156.091 179.84C155.211 179.84 154.553 180.224 154.143 180.72L154.536 181.164C154.955 180.711 155.416 180.472 156.04 180.472C156.732 180.472 157.313 180.814 157.313 181.446C157.313 182.104 156.707 182.386 155.989 182.386C155.758 182.386 155.493 182.386 155.399 182.378V183.027C155.485 183.019 155.75 183.019 155.989 183.019C156.826 183.019 157.407 183.318 157.407 184.027C157.407 184.685 156.903 185.095 156.074 185.095C155.399 185.095 154.818 184.788 154.485 184.343L154.066 184.788ZM159.139 184.813C159.566 185.377 160.182 185.728 161.147 185.728C162.292 185.728 163.173 185.01 163.173 183.848C163.173 182.677 162.309 182.027 161.361 182.027C160.788 182.027 160.301 182.267 160.028 182.54V180.558H162.805V179.925H159.319V183.002L159.84 183.181C160.224 182.805 160.652 182.643 161.156 182.643C161.925 182.643 162.463 183.121 162.463 183.873C162.463 184.565 161.925 185.095 161.147 185.095C160.447 185.095 159.951 184.822 159.575 184.343L159.139 184.813Z" fill="#111111"/>
<path d="M149.544 172.886H175.181V171.817H149.544V172.886ZM178.919 176.624V189.442H179.987V176.624H178.919ZM175.181 193.181H149.544V194.249H175.181V193.181ZM145.806 189.442V176.624H144.737V189.442H145.806ZM149.544 193.181C147.479 193.181 145.806 191.507 145.806 189.442H144.737C144.737 192.097 146.889 194.249 149.544 194.249V193.181ZM178.919 189.442C178.919 191.507 177.245 193.181 175.181 193.181V194.249C177.835 194.249 179.987 192.097 179.987 189.442H178.919ZM175.181 172.886C177.245 172.886 178.919 174.559 178.919 176.624H179.987C179.987 173.97 177.835 171.817 175.181 171.817V172.886ZM149.544 171.817C146.889 171.817 144.737 173.97 144.737 176.624H145.806C145.806 174.559 147.479 172.886 149.544 172.886V171.817Z" fill="#E5E8E8"/>
<path d="M150.151 165.535C150.965 165.535 151.395 165.022 151.395 164.382C151.395 163.843 151.029 163.401 150.574 163.33C150.978 163.247 151.311 162.888 151.311 162.35C151.311 161.779 150.895 161.26 150.081 161.26H147.831V165.535H150.151ZM148.741 162.036H149.882C150.19 162.036 150.382 162.241 150.382 162.504C150.382 162.779 150.19 162.978 149.882 162.978H148.741V162.036ZM148.741 163.753H149.914C150.273 163.753 150.465 163.984 150.465 164.253C150.465 164.561 150.26 164.76 149.914 164.76H148.741V163.753Z" fill="#111111"/>
</g>
<defs>
<linearGradient id="paint0_linear_7139_56524" x1="179.187" y1="53.9709" x2="8.8125" y2="53.9709" gradientUnits="userSpaceOnUse">
<stop stop-opacity="0"/>
<stop offset="1"/>
</linearGradient>
<linearGradient id="paint1_linear_7139_56524" x1="115.898" y1="8.92578" x2="115.898" y2="136.039" gradientUnits="userSpaceOnUse">
<stop stop-color="white"/>
<stop offset="1"/>
</linearGradient>
<linearGradient id="paint2_linear_7139_56524" x1="8.8125" y1="9.37891" x2="97.2045" y2="136.493" gradientUnits="userSpaceOnUse">
<stop stop-color="white"/>
<stop offset="1" stop-opacity="0"/>
</linearGradient>
<linearGradient id="paint3_linear_7139_56524" x1="179.454" y1="147.786" x2="8.54492" y2="147.786" gradientUnits="userSpaceOnUse">
<stop stop-color="#FF0008"/>
<stop offset="0.166667" stop-color="#FF00EB"/>
<stop offset="0.328125" stop-color="#0E00FF"/>
<stop offset="0.490625" stop-color="#00EDFF"/>
<stop offset="0.679688" stop-color="#00FF00"/>
<stop offset="0.83125" stop-color="#FFFE00"/>
<stop offset="1" stop-color="#FF0800"/>
</linearGradient>
<clipPath id="clip0_7139_56524">
<rect width="170.909" height="34.1818" fill="white" transform="translate(8.54492 159.539)"/>
</clipPath>
</defs>
</svg>
